<?xml version="1.0" encoding="utf-8"?>
<!-- Generator: Adobe Illustrator 19.0.0, SVG Export Plug-In . SVG Version: 6.00 Build 0)  -->
<svg version="1.1" id="Layer_1" xmlns="http://www.w3.org/2000/svg" xmlns:xlink="http://www.w3.org/1999/xlink" x="0px" y="0px"
	 viewBox="0 0 71.4 81.2" style="enable-background:new 0 0 71.4 81.2;" xml:space="preserve">
<style type="text/css">
	.st0{fill:#010101;}
</style>
<path id="XMLID_296_" class="st0" d="M24.3,11.4C24.3,5.1,29.4,0,35.7,0s11.4,5.1,11.4,11.4S42,22.7,35.7,22.7S24.3,17.6,24.3,11.4z
	 M41.2,30.5c0.1-2.5,1-4.8,2.3-6.7c-1-0.2-2-0.3-3-0.3h-9.6c-1,0-2,0.1-3,0.3c1.5,2,2.3,4.5,2.3,7.2c1.8-1,3.8-1.5,6-1.5
	C38,29.4,39.6,29.8,41.2,30.5z M43.1,31.5c3.3,2.1,5.6,5.6,6,9.6c1.3,0.6,2.8,1,4.4,1c5.8,0,10.5-4.7,10.5-10.5s-4.7-10.5-10.5-10.5
	C47.8,21.2,43.2,25.8,43.1,31.5z M36.2,52.9c5.8,0,10.5-4.7,10.5-10.5S42,31.9,36.2,31.9s-10.5,4.7-10.5,10.5S30.4,52.9,36.2,52.9z
	 M40.7,53.6h-8.9c-7.4,0-13.4,6-13.4,13.4v10.9v0.2l0.7,0.2c7,2.2,13.2,2.9,18.2,2.9c9.8,0,15.5-2.8,15.9-3l0.7-0.4H54V67
	C54.1,59.6,48,53.6,40.7,53.6z M58,42.8h-8.8c-0.1,3.5-1.6,6.7-4,9c6.6,2,11.4,8,11.4,15.2v3.3c8.7-0.3,13.7-2.8,14-2.9l0.7-0.4h0.1
	V56.2C71.4,48.8,65.4,42.8,58,42.8z M17.9,42.1c2,0,3.9-0.6,5.6-1.6c0.5-3.3,2.3-6.3,4.9-8.3c0-0.2,0-0.4,0-0.6
	c0-5.8-4.7-10.5-10.5-10.5S7.4,25.8,7.4,31.6S12.1,42.1,17.9,42.1z M27.3,51.8c-2.4-2.3-3.9-5.4-4-8.9c-0.3,0-0.6,0-1,0h-8.9
	C6,42.9,0,48.9,0,56.3v10.9v0.2l0.7,0.2c5.7,1.8,10.7,2.6,15.1,2.8v-3.3C15.9,59.8,20.7,53.7,27.3,51.8z"/>
</svg>
