<?xml version="1.0" encoding="utf-8"?>
<!-- Generator: Adobe Illustrator 19.0.0, SVG Export Plug-In . SVG Version: 6.00 Build 0)  -->
<svg version="1.1" id="Layer_1" xmlns="http://www.w3.org/2000/svg" xmlns:xlink="http://www.w3.org/1999/xlink" x="0px" y="0px"
	 viewBox="0 0 79.2 79.2" style="enable-background:new 0 0 79.2 79.2;" xml:space="preserve">
<style type="text/css">
	.st0{fill:#010101;}
</style>
<path id="XMLID_270_" class="st0" d="M79.2,39.6c0-4.5-8.3-7.2-18.4-8.8c1.3-1.8,2.5-3.5,3.5-5.1c4.5-7.1,5.6-11.9,3.3-14.1
	c-0.8-0.8-1.8-1.1-3.1-1.1c-3.5,0-9.3,3-16.1,8C46.9,8.3,44.1,0,39.6,0s-7.2,8.3-8.8,18.4c-6.8-5-12.6-8-16.1-8
	c-1.3,0-2.4,0.4-3.1,1.1c-3.2,3.2,0.8,11,6.9,19.3C8.4,32.4,0,35.2,0,39.6c0,4.5,8.3,7.2,18.4,8.8c-1.3,1.8-2.5,3.5-3.5,5.1
	c-4.5,7.1-5.6,11.9-3.3,14.1c0.8,0.8,1.8,1.1,3.1,1.1c3.5,0,9.3-3,16.1-8c1.5,10.1,4.3,18.4,8.8,18.4s7.2-8.3,8.8-18.4
	c6.8,5,12.6,8,16.1,8c1.3,0,2.4-0.4,3.1-1.1c2.3-2.3,1.1-7-3.3-14.1c-1-1.6-2.2-3.4-3.5-5.1C70.9,46.9,79.2,44.1,79.2,39.6z
	 M64.5,13.5c0.3,0,0.8,0,1,0.3c0.6,0.6,0.6,3.5-3.7,10.4c-1.2,2-2.7,4.1-4.4,6.3c-2.6-0.3-5.2-0.5-7.9-0.7c-0.2-2.6-0.4-5.3-0.7-7.9
	C56.1,16.3,61.8,13.5,64.5,13.5z M46.9,39.6c0,1,0,2,0,3c-0.7,0.7-1.4,1.4-2.1,2.1c-0.7,0.7-1.4,1.4-2.1,2.1c-1,0-2,0-3,0s-2,0-3,0
	c-0.7-0.7-1.4-1.4-2.1-2.1c-0.7-0.7-1.4-1.4-2.1-2.1c0-1,0-2,0-3c0-1,0-2,0-3c0.7-0.7,1.4-1.4,2.1-2.1c0.7-0.7,1.4-1.4,2.1-2.1
	c1,0,2,0,3,0c1,0,2,0,3,0c0.7,0.7,1.4,1.4,2.1,2.1c0.7,0.7,1.4,1.4,2.1,2.1C46.9,37.6,46.9,38.6,46.9,39.6z M43.9,29.4
	c-0.7-0.6-1.3-1.3-2-1.9c1.5-1.3,2.9-2.5,4.3-3.6c0.2,1.7,0.3,3.6,0.5,5.5C45.7,29.5,44.7,29.5,43.9,29.4z M35.4,29.4
	c-0.9,0-1.8,0.1-2.7,0.1c0.1-2,0.3-3.8,0.5-5.5c1.4,1.1,2.8,2.3,4.3,3.6C36.7,28.2,36.1,28.8,35.4,29.4z M29.4,35.4
	c-0.6,0.7-1.3,1.3-1.9,2c-1.3-1.5-2.5-2.9-3.6-4.3c1.8-0.2,3.6-0.3,5.6-0.5C29.5,33.6,29.5,34.5,29.4,35.4z M29.4,43.8
	c0,0.9,0.1,1.8,0.1,2.7c-2-0.1-3.8-0.3-5.6-0.5c1.1-1.4,2.3-2.8,3.6-4.3C28.2,42.5,28.8,43.2,29.4,43.8z M35.4,49.8
	c0.7,0.6,1.3,1.3,2,1.9c-1.5,1.3-2.9,2.5-4.3,3.6c-0.2-1.7-0.3-3.6-0.5-5.6C33.6,49.8,34.5,49.8,35.4,49.8z M43.9,49.8
	c0.9,0,1.8-0.1,2.7-0.1c-0.1,2-0.3,3.8-0.5,5.6c-1.4-1.1-2.8-2.3-4.3-3.6C42.5,51.1,43.2,50.4,43.9,49.8z M49.8,43.9
	c0.6-0.7,1.2-1.3,1.9-2c1.3,1.4,2.5,2.9,3.6,4.3c-1.7,0.2-3.6,0.3-5.6,0.5C49.8,45.7,49.8,44.7,49.8,43.9z M49.8,35.4
	c0-0.9-0.1-1.8-0.1-2.7c2,0.1,3.8,0.3,5.6,0.5c-1.1,1.4-2.3,2.8-3.6,4.3C51.1,36.7,50.4,36.1,49.8,35.4z M39.6,3
	c1.7,0,4.5,5.9,6.1,17.5c-2,1.5-4,3.2-6.1,5.1c-2.1-1.8-4.1-3.5-6.1-5.1C35.1,8.9,37.9,3,39.6,3z M13.7,13.7c0.2-0.2,0.7-0.3,1-0.3
	c2.7,0,8.4,2.9,15.7,8.4c-0.3,2.6-0.5,5.2-0.7,7.9c-2.6,0.2-5.3,0.4-7.9,0.7C14.7,21.1,12.5,15,13.7,13.7z M3,39.6
	c0-1.7,6-4.5,17.5-6.1c1.6,2.1,3.3,4.1,5.1,6.1c-1.8,2.1-3.5,4.1-5.1,6.1C8.9,44.1,3,41.4,3,39.6z M14.7,65.8c-0.3,0-0.8,0-1-0.3
	c-0.6-0.6-0.6-3.5,3.7-10.4c1.2-2,2.7-4.1,4.4-6.3c2.6,0.3,5.2,0.5,7.9,0.7c0.2,2.6,0.4,5.3,0.7,7.9C23.2,62.9,17.5,65.8,14.7,65.8z
	 M39.6,76.2c-1.7,0-4.5-5.9-6.1-17.5c2-1.5,4-3.2,6.1-5.1c2.1,1.8,4.1,3.5,6.1,5.1C44.1,70.3,41.4,76.2,39.6,76.2z M61.8,55.1
	c4.3,6.9,4.3,9.8,3.7,10.4c-0.2,0.2-0.7,0.3-1,0.3c-2.7,0-8.4-2.9-15.7-8.4c0.3-2.6,0.5-5.2,0.7-7.9c2.6-0.2,5.3-0.4,7.9-0.7
	C59.1,51,60.5,53.1,61.8,55.1z M58.8,45.7c-1.6-2-3.3-4-5.1-6.1c1.8-2.1,3.5-4.1,5.1-6.1c11.5,1.6,17.5,4.3,17.5,6.1
	C76.2,41.4,70.3,44.1,58.8,45.7z"/>
</svg>
