<?xml version="1.0" encoding="utf-8"?>
<!-- Generator: Adobe Illustrator 19.0.0, SVG Export Plug-In . SVG Version: 6.00 Build 0)  -->
<svg version="1.1" id="Layer_1" xmlns="http://www.w3.org/2000/svg" xmlns:xlink="http://www.w3.org/1999/xlink" x="0px" y="0px"
	 viewBox="0 0 71.4 87.9" style="enable-background:new 0 0 71.4 87.9;" xml:space="preserve">
<style type="text/css">
	.st0{fill:#010101;}
</style>
<g id="XMLID_293_">
	<g id="XMLID_294_" transform="translate(-604.000000, -358.000000)">
		<g id="XMLID_295_" transform="translate(603.000000, 358.000000)">
			<path id="XMLID_304_" class="st0" d="M9.2,28.8C9.2,28.8,9.2,28.8,9.2,28.8l54.9,0c0,0,0,0,0,0v5.5c0,0,0,0,0,0H9.2c0,0,0,0,0,0
				V28.8L9.2,28.8z M3.7,28.8v5.5c0,3,2.5,5.5,5.5,5.5h54.9c3,0,5.5-2.5,5.5-5.5v-5.5c0-3-2.5-5.5-5.5-5.5H9.2
				C6.2,23.3,3.7,25.8,3.7,28.8L3.7,28.8z"/>
			<path id="XMLID_301_" class="st0" d="M17.5,39.8C17.5,39.8,17.5,39.8,17.5,39.8l38.4,0c0,0,0,0,0,0v42.5c0,0,0,0,0,0H17.5
				c0,0,0,0,0,0V39.8L17.5,39.8z M12,39.8v42.5c0,3,2.5,5.5,5.5,5.5h38.4c3,0,5.5-2.5,5.5-5.5V39.8c0-3-2.5-5.5-5.5-5.5H17.5
				C14.4,34.3,12,36.8,12,39.8L12,39.8z"/>
			<path id="XMLID_30_" class="st0" d="M69.7,82.4H3.7c-1.5,0-2.7,1.2-2.7,2.7c0,1.5,1.2,2.7,2.7,2.7h65.9c1.5,0,2.7-1.2,2.7-2.7
				C72.4,83.6,71.2,82.4,69.7,82.4L69.7,82.4z"/>
			<path id="XMLID_297_" class="st0" d="M31.2,5.5C31.2,5.5,31.2,5.5,31.2,5.5l11,0c0,0,0,0,0,0v2.7c0,0,0,0,0,0h-11c0,0,0,0,0,0
				V5.5L31.2,5.5z M25.7,5.5v2.8c0,3,2.5,5.5,5.5,5.5h11c3,0,5.5-2.5,5.5-5.5V5.5c0-3-2.5-5.5-5.5-5.5h-11C28.2,0,25.7,2.5,25.7,5.5
				L25.7,5.5z"/>
			<path id="XMLID_29_" class="st0" d="M17.5,15.1c0-3,2.5-5.5,5.5-5.5h4.1c1.5,0,2.7-1.2,2.7-2.7s-1.2-2.7-2.7-2.7H23
				c-6.1,0-11,4.9-11,11v9.6c0,1.5,1.2,2.7,2.7,2.7s2.7-1.2,2.7-2.7V15.1z"/>
		</g>
	</g>
</g>
</svg>
