<?xml version="1.0" encoding="utf-8"?>
<!-- Generator: Adobe Illustrator 19.0.0, SVG Export Plug-In . SVG Version: 6.00 Build 0)  -->
<svg version="1.1" id="Layer_1" xmlns="http://www.w3.org/2000/svg" xmlns:xlink="http://www.w3.org/1999/xlink" x="0px" y="0px"
	 viewBox="-198.8 235.9 30.4 35.4" style="enable-background:new -198.8 235.9 30.4 35.4;" xml:space="preserve">
<style type="text/css">
	.st0{fill:#FFFFFF;}
</style>
<g id="XMLID_119_">
	<g id="XMLID_123_">
		<g id="XMLID_25_">
			<path id="XMLID_27_" class="st0" d="M-179.1,255.6l-8.6,5c-1.5,0.9-3.4-0.2-3.4-2v-10c0-1.7,1.9-2.8,3.4-2l8.6,5
				C-177.6,252.5-177.6,254.7-179.1,255.6z"/>
			<path id="XMLID_26_" class="st0" d="M-179.1,255.6l-8.6,5c-1.5,0.9-3.4-0.2-3.4-2v-10c0-1.7,1.9-2.8,3.4-2l8.6,5
				C-177.6,252.5-177.6,254.7-179.1,255.6z"/>
		</g>
	</g>
	<g id="XMLID_120_">
		<path id="XMLID_121_" class="st0" d="M-186.4,271.3c-2.3,0-4.5-0.4-6.7-1.3c-2.1-0.9-4.1-2.1-5.7-3.8c-0.1-0.1-0.1-0.2,0-0.2
			l1.9-1.9c0.1-0.1,0.2-0.1,0.2,0c2.6,2.6,6.1,4.1,9.8,4.2c4.2,0.1,8.4-1.6,11.3-4.7c2.6-2.7,4-6.3,4-10c0-3.9-1.5-7.6-4.3-10.4
			c-5.7-5.7-14.9-5.7-20.7-0.1c-0.1,0.1-0.2,0.1-0.2,0l-1.9-1.9c-0.1-0.1-0.1-0.2,0-0.2c1.7-1.6,3.6-2.9,5.7-3.8
			c2.1-0.9,4.4-1.3,6.7-1.3s4.5,0.4,6.7,1.3s4.2,2.2,5.9,3.9c1.7,1.7,3,3.7,3.9,5.9c0.9,2.1,1.3,4.4,1.3,6.7s-0.4,4.5-1.3,6.7
			c-0.9,2.2-2.2,4.2-3.9,5.9c-1.7,1.7-3.7,3-5.9,3.9C-181.8,270.9-184.1,271.3-186.4,271.3z"/>
	</g>
</g>
</svg>
