<?xml version="1.0" encoding="utf-8"?>
<!-- Generator: Adobe Illustrator 19.0.0, SVG Export Plug-In . SVG Version: 6.00 Build 0)  -->
<svg version="1.1" id="Layer_1" xmlns="http://www.w3.org/2000/svg" xmlns:xlink="http://www.w3.org/1999/xlink" x="0px" y="0px"
	 viewBox="0 0 84.8 95" style="enable-background:new 0 0 84.8 95;" xml:space="preserve">
<style type="text/css">
	.st0{fill:#FFFFFF;}
</style>
<g id="XMLID_1356_" transform="translate(0,-288.53332)">
	<g id="XMLID_60_">
		<path id="XMLID_64_" class="st0" d="M8.5,327.5c-4.7,0-8.5,3.8-8.5,8.5v1.7c0,4.7,3.8,8.5,8.5,8.5h67.8c4.7,0,8.5-3.8,8.5-8.5V336
			c0-4.7-3.8-8.5-8.5-8.5H8.5z M11.9,335.2c0.9,0,1.7,0.8,1.7,1.7l0,0c0,0.9-0.8,1.7-1.7,1.7h0c-0.9,0-1.7-0.8-1.7-1.7l0,0
			C10.2,335.9,10.9,335.2,11.9,335.2L11.9,335.2z M72.9,335.2c0.9,0,1.7,0.8,1.7,1.7l0,0c0,0.9-0.8,1.7-1.7,1.7h0
			c-0.9,0-1.7-0.8-1.7-1.7l0,0C71.2,335.9,72,335.2,72.9,335.2L72.9,335.2z"/>
		<path id="XMLID_63_" class="st0" d="M40.5,288.5v9c0,5,1.5,10.1,5,13.6l13.4,13.4h17.4c0.2,0,0.3,0,0.5,0.1L40.5,288.5z"/>
		<path id="XMLID_62_" class="st0" d="M7.8,349.1l32.8,34.4l2.5-2.2c0.4-0.4,0.5-1.1,0.3-1.6l-1.4-2.8c-2.4-4.8,0.6-9.3-1.4-13.8
			c0,0-9.1,2.3-11.2,0l-3.7-3.7c-1.2-1.4,0.2-2.9,1.9-3.7l3.7-1.9l-4.6-4.6H8.5C8.2,349.2,8,349.1,7.8,349.1L7.8,349.1z"/>
		<path id="XMLID_61_" class="st0" d="M11.9,297.9l-2.7,7.4c-1,2.9-1.6,6-1.6,9.1v10.2c0.3,0,0.6-0.1,0.8-0.1h7.6v-10.1
			c0-3.1-0.5-6.2-1.6-9.1L11.9,297.9z"/>
	</g>
</g>
</svg>
