<?xml version="1.0" encoding="utf-8"?>
<!-- Generator: Adobe Illustrator 19.0.0, SVG Export Plug-In . SVG Version: 6.00 Build 0)  -->
<svg version="1.1" id="Layer_1" xmlns="http://www.w3.org/2000/svg" xmlns:xlink="http://www.w3.org/1999/xlink" x="0px" y="0px"
	 viewBox="-423.9 320.7 142 141.9" style="enable-background:new -423.9 320.7 142 141.9;" xml:space="preserve">
<style type="text/css">
	.st0{fill:#FFFFFF;}
</style>
<path class="st0" d="M-328.5,338.5c0-9.8-8.1-17.8-18.1-17.8h-13.3c-9.7,0.1-17.7,8.2-17.7,17.9v6.7v2h-2H-406l-0.2,0
	c-4.7,0-9.2,1.9-12.5,5.2c-3.3,3.4-5.2,7.8-5.2,12.6v79.5c0,9.9,8,17.9,17.9,17.9h106.1c9.9,0,17.9-8,17.9-17.9v-79.5
	c-0.1-10-8-17.9-18.1-17.9h-26.5h-2v-2V338.5z M-368.2,345.2v-6.5c-0.1-2.2,0.7-4.4,2.3-6c1.6-1.7,3.7-2.6,6-2.7l0,0h0h0.1h13.3
	c4.9,0,8.8,3.9,8.8,8.7v6.4v0.8l-0.6,0.6c-0.3,0.3-0.8,0.7-1.7,0.7h-26.3h-2V345.2z M-397.3,358.7v92.8v2h-2h-6.7
	c-4.8,0-8.7-3.9-8.7-8.7v-79.6v0l0,0c0.2-4.7,4-8.4,8.7-8.4h6.7h2V358.7z M-308.6,451.5v-92.9v-2h2h6.7c4.8,0,8.7,3.9,8.7,8.7v79.5
	c0,4.8-3.9,8.7-8.7,8.7h-6.7h-2V451.5z M-320,356.6h2v2v92.8v2l-2,0l-66.1,0.1l-2,0v-2v-92.9v-2h2H-320z"/>
</svg>
