<?xml version="1.0" encoding="utf-8"?>
<!-- Generator: Adobe Illustrator 19.0.0, SVG Export Plug-In . SVG Version: 6.00 Build 0)  -->
<svg version="1.1" id="Layer_1" xmlns="http://www.w3.org/2000/svg" xmlns:xlink="http://www.w3.org/1999/xlink" x="0px" y="0px"
	 viewBox="0 0 136.9 35.4" style="enable-background:new 0 0 136.9 35.4;" xml:space="preserve">
<style type="text/css">
	.st0{fill:#FFFFFF;}
</style>
<g id="XMLID_119_">
	<g id="XMLID_131_">
		<path id="XMLID_147_" class="st0" d="M0,25.1V10.4h3.7v14.7H0z"/>
		<path id="XMLID_145_" class="st0" d="M16.9,25.1l-6.8-9v9H6.7V10.4H10l6.8,9.1v-9.1h3.5v14.7H16.9z"/>
		<path id="XMLID_143_" class="st0" d="M27.4,25.1l-5.7-14.7h4l3.8,10.8l3.8-10.8H37l-5.8,14.7H27.4z"/>
		<path id="XMLID_140_" class="st0" d="M53.3,17.7c0,4.3-3.4,7.5-8,7.5c-4.5,0-7.9-3.2-7.9-7.5c0-4.3,3.4-7.5,7.9-7.5
			C49.9,10.3,53.3,13.4,53.3,17.7z M41.3,17.7c0,2.5,1.9,4.4,4.2,4.4c2.3,0,4.1-1.9,4.1-4.4s-1.8-4.3-4.1-4.3
			C43.2,13.4,41.3,15.2,41.3,17.7z"/>
		<path id="XMLID_138_" class="st0" d="M65.3,21.9v3.1h-10V10.4h3.7v11.6H65.3z"/>
		<path id="XMLID_136_" class="st0" d="M71.3,25.1l-5.7-14.7h4l3.8,10.8l3.8-10.8h3.8l-5.8,14.7H71.3z"/>
		<path id="XMLID_134_" class="st0" d="M86.1,13.3v2.9h7v2.9h-7v3h8v2.9H82.4V10.4h11.5v2.9H86.1z"/>
		<path id="XMLID_132_" class="st0" d="M107.9,11.8l-1.4,2.9c-1.6-0.9-3.5-1.5-4.7-1.5c-1,0-1.6,0.4-1.6,1.1c0,2.5,7.8,1.1,7.8,6.4
			c0,2.9-2.6,4.5-5.9,4.5c-2.5,0-5-0.9-6.7-2.4l1.4-2.9c1.5,1.3,3.8,2.2,5.3,2.2c1.2,0,1.9-0.4,1.9-1.3c0-2.6-7.8-1-7.8-6.3
			c0-2.7,2.3-4.4,5.9-4.4C104.3,10.2,106.4,10.9,107.9,11.8z"/>
	</g>
	<g id="XMLID_123_">
		<g id="XMLID_25_">
			<path id="XMLID_27_" class="st0" d="M126.4,19.7l-8.6,5c-1.5,0.9-3.4-0.2-3.4-2v-10c0-1.7,1.9-2.8,3.4-2l8.6,5
				C127.9,16.6,127.9,18.8,126.4,19.7z"/>
			<path id="XMLID_26_" class="st0" d="M126.4,19.7l-8.6,5c-1.5,0.9-3.4-0.2-3.4-2v-10c0-1.7,1.9-2.8,3.4-2l8.6,5
				C127.9,16.6,127.9,18.8,126.4,19.7z"/>
		</g>
	</g>
	<g id="XMLID_120_">
		<path id="XMLID_121_" class="st0" d="M119.2,35.4c-2.3,0-4.5-0.4-6.7-1.3c-2.1-0.9-4.1-2.1-5.7-3.8c-0.1-0.1-0.1-0.2,0-0.2
			l1.9-1.9c0.1-0.1,0.2-0.1,0.2,0c2.6,2.6,6.1,4.1,9.8,4.2c4.2,0.1,8.4-1.6,11.3-4.7c2.6-2.7,4-6.3,4-10c0-3.9-1.5-7.6-4.3-10.4
			c-5.7-5.7-14.9-5.7-20.7-0.1c-0.1,0.1-0.2,0.1-0.2,0l-1.9-1.9c-0.1-0.1-0.1-0.2,0-0.2c1.7-1.6,3.6-2.9,5.7-3.8
			c2.1-0.9,4.4-1.3,6.7-1.3c2.3,0,4.5,0.4,6.7,1.3c2.2,0.9,4.2,2.2,5.9,3.9c1.7,1.7,3,3.7,3.9,5.9c0.9,2.1,1.3,4.4,1.3,6.7
			c0,2.3-0.4,4.5-1.3,6.7c-0.9,2.2-2.2,4.2-3.9,5.9c-1.7,1.7-3.7,3-5.9,3.9C123.8,35,121.5,35.4,119.2,35.4z"/>
	</g>
</g>
</svg>
