<?xml version="1.0" encoding="utf-8"?>
<!-- Generator: Adobe Illustrator 19.0.0, SVG Export Plug-In . SVG Version: 6.00 Build 0)  -->
<svg version="1.1" id="Layer_1" xmlns="http://www.w3.org/2000/svg" xmlns:xlink="http://www.w3.org/1999/xlink" x="0px" y="0px"
	 viewBox="0 0 122 50.6" style="enable-background:new 0 0 122 50.6;" xml:space="preserve">
<style type="text/css">
	.st0{fill:#010101;}
	.st1{fill:#BC2026;}
</style>
<g id="XMLID_12_">
	<path id="XMLID_17_" class="st0" d="M40.3,50.6L37.2,42H15.5l-3.2,8.6H0L19.6,0h13.5l19.5,50.6H40.3z M26.3,10.8l-7.9,21.8h15.8
		L26.3,10.8z"/>
	<path id="XMLID_15_" class="st0" d="M56.8,50.6V0h35.8v9.5h-25v10.7h24.5v9.5H67.6v11.5h25v9.5H56.8z"/>
	<path id="XMLID_13_" class="st1" d="M114.5,29.6L107,18.8l-7.5,10.8h-7.5l10.7-15.2L92.7,0h7.5l6.8,10.1L113.7,0h7.6l-10.1,14.4
		L122,29.6H114.5z"/>
</g>
</svg>
